TidyTuesday2.13.20
…
#Loading the right packages

library(tidyverse)
library(tidyr)
library(dplyr)

#Coding Club code from Allyson

resorts_july<-hotels[(hotels$hotel == "Resort Hotel" & hotels$arrival_date_month == "July"),] %>% select("hotel", "country", "babies")

filter(hotels, hotel =="Resort Hotel" & arrival_date_month == "July") %>% select("hotel", "stays_in_week_nights", "babies")

## # A tibble: 4,573 x 3
##    hotel        stays_in_week_nights babies
##    <chr>                       <dbl>  <dbl>
##  1 Resort Hotel                    0      0
##  2 Resort Hotel                    0      0
##  3 Resort Hotel                    1      0
##  4 Resort Hotel                    1      0
##  5 Resort Hotel                    2      0
##  6 Resort Hotel                    2      0
##  7 Resort Hotel                    2      0
##  8 Resort Hotel                    2      0
##  9 Resort Hotel                    3      0
## 10 Resort Hotel                    3      0
## #  with 4,563 more rows
…
